{
  "id": "/mnist-gpu/mnist-nondistributed",
  "backoffFactor": 1.15,
  "backoffSeconds": 1,
  "cmd": "chmod 777 $FILE_PATH/run_nondistributed.sh; $FILE_PATH/run_nondistributed.sh",
  "constraints": [
    [
      "hostname",
      "IS",
      "172.29.128.65"
    ]
  ],
  "container": {
    "type": "MESOS",
    "volumes": []
  },
  "cpus": 1,
  "disk": 0,
  "env": {
    "GCS_KEY": "{  \"type\": \"service_account\",  \"project_id\": \"dcos-228902\",   \"private_key_id\": \"7501cbe82588e408e3c9ca3b7aae37454c718f5e\",   \"private_key\": \"-----BEGIN PRIVATE KEY-----\\nMIIEvgIBADANBgkqhkiG9w0BAQEFAASCBKgwggSkAgEAAoIBAQDK8JkYrbQmf/m3\\nJ1FTzTZdHwHnOCypeves/86Bb1uNbCXOlJUxPtQTLVlj93/xPV4te5MNGMiFWypt\\n3TZ17nA1Qvvbg1Aezo8t3wv3jfvMuzqmlUXuRx8YYQbUrmb1KbKbJOCHqibeslna\\nUksUC8twVwTG1CMLXOJ3PeyRRS2ZeTNy/TGfNUgSobFAPTS1i+/PQTfyJ9YRmwC2\\ntAFFhEVoKogBUzbSL6+TyCU87Ozo8jG4aF2BLGBlak1yxGYbJeNd6aMGPfQV6f+V\\nPqmAxWBnSeygeZc+IbgFfQ6OGRP+LjepIFavRRj0vnqCGXrmyNzDN3CyB6QoTLdh\\nxFHFQE/JAgMBAAECggEACW2KRT7bn87B9n/re6/MyuB0BY6C56g8baNwL+vxFkW8\\nD2fwcupa7p2kmZvvzBCoaYdERn9cYHKi6tn0K+AlAxpuqizkadv5g51pOEnWtPUN\\nRVwptKdF8uteBn8oLhNO9n1s92yAlAe33ChGz+J44+oNASItkxtwc27zaK/MraSi\\nOOFwcI7pjMC1HRvOIw4OuF9rqk2mIs2gqWMXJezU/Cgq05PqbTkLrUn++6K0yv0l\\np7NMpJ6Peh6PYKuCeTa78+/sAe5G1gmQ5OJyPYXzAv4LR1IPCWpPfGFbwNoV99Gr\\nj0Tn74BshU9TddGbuMrwdMWP8IT25z1OBF/J6IqzkQKBgQDw+f5bemyBtzgbTgTE\\nY0s7G/RZ5FVhk1em0gbZuSZPCl2KoDgcAYWqYT8gd6dVmH+bkzjwQiCpjuTqDzAN\\nfkHcs/9CZ7PKUBzKaEIkTjmoaFU8UU+7i8trV+iAJzvNBFi2Wz4CBYtknF5GPt9t\\nrdOkP5uHEYY+7ZEuUxijrd9+8QKBgQDXl4kP+MIqTpF2bj/GfHeGji/dwFsIBSl3\\nmB52nb4GFz4dIaUrAqdRK1+onZGmWT/yN9A6FA1LDMsSa0sDmNkKC03iISCrbDLj\\n72C3GmCKFMqlSOcLqE1U/ydM+nbA72rLH5QYfRbgapeybUiIDfJUnIm49RGwC7kw\\n5xWEK1wOWQKBgQCc1jhkFXPVoQfVTZvwradjGziX4PJpBVrA6mUnA0gZnWdwOAMM\\nxzjVwWEyom24Wf6DpPgj9wYHFUeLxsLBpXD8UfJKp+/uNuHmIqEZvAfuwajoDwvT\\nxpJolNhvwBk9wBx040GiUzV8EAGTuov0eHQMrJFvAUrcXgZlnhOlRB74IQKBgD0f\\nBQi2KbX82FiPIR2QpAJNxVxE8InxjLQPOHPAfOMVK9Luevkao3zrow8WvPhATVTK\\nZgpRLQOd+OSb7oRyjPXABrCZW729yx+7+dtvavc6tcjuRjKT4Hi8bdPxHkHMnqY/\\nqajXreipz6ASQ4HvEkjSqGj7caxLZpFqsjrqYArhAoGBALGYlEkiKM82yRHkj8n9\\nDBtLRZBrx2ofKyHCAGhYxeFZ3lZRMWPfs9L/bk6ZcYqHHlCBO+CWrJvpT5E9XSzk\\nM7yvAJOdpcN1lYE9My81UV63fUrUx5XnMdLE2/S1f71NrI67S9IrmuDRsTLasP9P\\n0U8t+HwqvQF/5tmfrFDJIbLf\\n-----END PRIVATE KEY-----\\n\",   \"client_email\": \"dcos-gcs@dcos-228902.iam.gserviceaccount.com\",   \"client_id\": \"115750770594475405332\",   \"auth_uri\": \"https://accounts.google.com/o/oauth2/auth\",   \"token_uri\": \"https://oauth2.googleapis.com/token\",   \"auth_provider_x509_cert_url\": \"https://www.googleapis.com/oauth2/v1/certs\",   \"client_x509_cert_url\": \"https://www.googleapis.com/robot/v1/metadata/x509/dcos-gcs%40dcos-228902.iam.gserviceaccount.com\" }",
    "FILE_PATH": "./mnist-with-mount-master"
  },
  "executor": "",
  "fetch": [
    {
      "uri": "https://gitlab.com/shihern/mnist-with-mount/-/archive/master/mnist-with-mount-master.zip",
      "extract": true,
      "executable": false,
      "cache": false
    }
  ],
  "instances": 0,
  "labels": {},
  "maxLaunchDelaySeconds": 3600,
  "mem": 4096,
  "gpus": 1,
  "networks": [
    {
      "mode": "host"
    }
  ],
  "portDefinitions": [],
  "requirePorts": true,
  "upgradeStrategy": {
    "maximumOverCapacity": 1,
    "minimumHealthCapacity": 1
  },
  "version": "2019-02-22T03:44:59.923Z",
  "versionInfo": {
    "lastScalingAt": "2019-02-22T03:44:59.923Z",
    "lastConfigChangeAt": "2019-02-20T02:51:17.608Z"
  },
  "killSelection": "YOUNGEST_FIRST",
  "unreachableStrategy": {
    "inactiveAfterSeconds": 0,
    "expungeAfterSeconds": 0
  }
}